<svg xmlns="http://www.w3.org/2000/svg" xmlns:xlink="http://www.w3.org/1999/xlink" width="771" height="14" viewBox="0 0 771 14">
    <defs>
        <path id="p54wa" d="M200 1554.01v-3l770.01-11.02V1554z"/>
        <linearGradient id="p54wb" x1="200" x2="970" y1="1547.01" y2="1546.99" gradientUnits="userSpaceOnUse">
            <stop offset="0" stop-color="#ccb1f1"/>
            <stop offset="1" stop-color="#435993"/>
        </linearGradient>
    </defs>
    <g>
        <g transform="translate(-200 -1540)">
            <use fill="#1c1c1c" xlink:href="#p54wa"/>
            <use fill="url(#p54wb)" xlink:href="#p54wa"/>
        </g>
    </g>
</svg>
